<?xml version="1.0" encoding="utf-8"?>
<!-- Generator: Adobe Illustrator 23.0.6, SVG Export Plug-In . SVG Version: 6.00 Build 0)  -->
<svg version="1.1" id="Layer_1" xmlns="http://www.w3.org/2000/svg" xmlns:xlink="http://www.w3.org/1999/xlink" x="0px" y="0px"
	 viewBox="0 0 500 500" style="enable-background:new 0 0 500 500;" xml:space="preserve">
<style type="text/css">
	.st0{fill:#FFFFFF;}
</style>
<g id="myMeXS.tif">
	<g>
		<path class="st0" d="M249.78,80.44c-10.61,0.51-18.55,5.11-23.72,14.18c-8.16,14.32-16.1,28.77-24.43,42.99
			c-7.01,11.98-15.06,23.26-24.99,33.05c-12.21,12.04-26.55,21.15-41.33,29.61c-11.08,6.34-22.31,12.44-33.47,18.65
			c-4.26,2.37-7.67,5.61-10.36,9.73c-7.91,12.11-3.9,29.85,8.54,37.06c4.58,2.65,9.29,5.1,13.88,7.73
			c11.23,6.43,22.52,12.76,33.61,19.43c9.03,5.43,17.57,11.6,25.39,18.71c10.64,9.69,19.37,20.97,26.67,33.28
			c8.66,14.6,16.88,29.46,25.2,44.26c2.72,4.83,5.95,9.06,10.67,12.15c12.1,7.93,29.99,3.87,37.22-8.68
			c3.78-6.57,7.4-13.23,11.06-19.87c7.39-13.39,14.94-26.68,23.8-39.18c6.78-9.57,14.53-18.23,23.57-25.71
			c12.24-10.12,25.83-18.2,39.59-26c9.83-5.56,19.89-10.74,29.52-16.63c15.66-9.57,16.03-34.19,0.63-44.15
			c-8.03-5.19-16.72-9.33-24.96-14.21c-11.58-6.86-23.17-13.72-34.45-21.04c-9.88-6.41-18.56-14.33-26.13-23.4
			c-11.19-13.4-19.89-28.42-28.42-43.55c-4.9-8.68-9.39-17.6-14.6-26.09C267.19,84.5,259.2,80.77,249.78,80.44z M402.9,341.79
			c-3.7,0.07-6.29,1.5-7.98,4.44c-2.42,4.21-4.89,8.39-7.21,12.66c-5.13,9.47-12.36,16.81-21.84,21.95
			c-4.22,2.29-8.41,4.62-12.53,7.08c-6.47,3.86-6.42,11.98,0.07,15.82c4.18,2.47,8.41,4.85,12.64,7.22
			c7.92,4.44,14.68,10.11,19.33,18.05c3.17,5.41,6.21,10.9,9.42,16.29c3.75,6.31,12.12,6.24,15.73-0.08
			c2.45-4.28,4.79-8.62,7.28-12.87c3.42-5.82,7.06-11.6,12.73-15.42c7.03-4.73,14.4-8.95,21.67-13.32c3.01-1.81,4.5-4.45,4.49-7.87
			c-0.01-3.34-1.5-5.96-4.44-7.65c-4.4-2.53-8.81-5.05-13.24-7.53c-8.13-4.56-14.88-10.59-19.67-18.66
			c-3.09-5.21-6.04-10.49-9.08-15.72C408.57,343.23,405.91,341.91,402.9,341.79z M42.74,90.07c0.02,3.18,1.13,5.58,3.87,7.27
			c3.95,2.42,8,4.68,12.06,6.91c9.02,4.96,16.68,11.35,21.85,20.42c2.67,4.68,5.4,9.33,7.96,14.07c1.81,3.34,4.41,5.38,8.23,5.42
			c3.8,0.04,6.54-1.85,8.36-5.19c2.12-3.88,4.33-7.7,6.46-11.57c5.02-9.11,11.73-16.56,20.93-21.64c4.59-2.54,9.16-5.1,13.65-7.81
			c6.52-3.94,6.36-12.23-0.23-16c-4.6-2.63-9.23-5.19-13.8-7.86c-6.31-3.69-12.05-8.11-16.01-14.36
			c-3.87-6.1-7.41-12.41-11.07-18.64c-1.81-3.09-4.34-4.98-8.02-5.04c-3.57-0.06-6.25,1.56-8.02,4.61
			c-2.65,4.58-5.17,9.24-7.85,13.81C77.26,61.03,72.68,67,66.14,71.09c-6.07,3.79-12.29,7.34-18.48,10.93
			C44.54,83.84,42.74,86.38,42.74,90.07z M409.72,115.32c-0.04-2.01-0.97-3.53-2.66-4.55c-1.89-1.14-3.8-2.23-5.74-3.29
			c-5.35-2.94-10.23-6.45-13.5-11.76c-1.97-3.2-3.73-6.53-5.68-9.75c-2.54-4.19-7.54-4.08-9.96,0.18c-0.91,1.6-1.78,3.22-2.64,4.84
			c-3.55,6.64-8.24,12.17-15.03,15.72c-2.29,1.19-4.51,2.5-6.75,3.8c-4.09,2.36-4.12,7.41-0.07,9.82c0.82,0.49,1.67,0.92,2.53,1.35
			c8.53,4.24,15.58,10.02,19.68,18.9c0.77,1.67,1.73,3.26,2.75,4.8c2.12,3.22,6.42,3.42,8.79,0.38c0.99-1.26,1.73-2.72,2.52-4.13
			c3.38-6.08,6.92-12.03,13.17-15.71c3.11-1.83,6.24-3.64,9.38-5.44C408.5,119.33,409.77,117.74,409.72,115.32z M154.87,369.44
			c-0.57-0.78-1.41-2.4-2.68-3.54c-1.23-1.11-2.89-1.75-4.37-2.57c-4.91-2.73-9.86-5.5-13.17-10.18c-2.63-3.73-4.88-7.74-7.15-11.71
			c-2.54-4.45-7.19-4.76-10.06-0.49c-1.1,1.64-2.02,3.42-2.95,5.17c-3.17,5.97-7.25,11.11-13.17,14.58c-2.99,1.75-6.07,3.36-9,5.22
			c-3.4,2.16-3.38,6.81-0.02,9.05c1.53,1.02,3.15,1.91,4.78,2.75c7.02,3.65,12.92,8.47,16.62,15.66c1.15,2.23,2.44,4.38,3.71,6.55
			c2.25,3.85,6.88,4.08,9.44,0.45c0.68-0.96,1.22-2.01,1.78-3.04c3.55-6.51,7.33-12.83,14-16.73c3.06-1.79,6.14-3.54,9.23-5.27
			C153.78,374.27,154.68,372.61,154.87,369.44z"/>
		<path class="st0" d="M249.78,80.44c9.41,0.33,17.41,4.06,22.49,12.34c5.21,8.48,9.7,17.41,14.6,26.09
			c8.53,15.13,17.23,30.15,28.42,43.55c7.58,9.07,16.26,16.99,26.13,23.4c11.28,7.32,22.87,14.18,34.45,21.04
			c8.24,4.88,16.93,9.02,24.96,14.21c15.4,9.95,15.03,34.58-0.63,44.15c-9.63,5.88-19.69,11.07-29.52,16.63
			c-13.77,7.79-27.36,15.87-39.59,26c-9.04,7.48-16.79,16.15-23.57,25.71c-8.86,12.5-16.42,25.79-23.8,39.18
			c-3.66,6.64-7.27,13.3-11.06,19.87c-7.23,12.55-25.12,16.61-37.22,8.68c-4.73-3.1-7.96-7.32-10.67-12.15
			c-8.32-14.8-16.54-29.66-25.2-44.26c-7.3-12.31-16.03-23.59-26.67-33.28c-7.81-7.11-16.36-13.28-25.39-18.71
			c-11.09-6.67-22.38-13-33.61-19.43c-4.6-2.63-9.3-5.08-13.88-7.73c-12.44-7.21-16.45-24.95-8.54-37.06
			c2.69-4.12,6.1-7.35,10.36-9.73c11.16-6.22,22.38-12.31,33.47-18.65c14.78-8.45,29.12-17.57,41.33-29.61
			c9.93-9.79,17.98-21.07,24.99-33.05c8.33-14.22,16.27-28.67,24.43-42.99C231.24,85.54,239.18,80.95,249.78,80.44z"/>
		<path class="st0" d="M402.9,341.79c3.01,0.13,5.67,1.45,7.38,4.39c3.04,5.23,6,10.52,9.08,15.72c4.78,8.07,11.54,14.1,19.67,18.66
			c4.43,2.48,8.84,5,13.24,7.53c2.94,1.69,4.43,4.31,4.44,7.65c0.01,3.42-1.48,6.05-4.49,7.87c-7.27,4.37-14.65,8.59-21.67,13.32
			c-5.67,3.82-9.32,9.6-12.73,15.42c-2.5,4.25-4.84,8.59-7.28,12.87c-3.62,6.33-11.98,6.4-15.73,0.08
			c-3.2-5.39-6.25-10.88-9.42-16.29c-4.64-7.93-11.41-13.6-19.33-18.05c-4.23-2.38-8.47-4.75-12.64-7.22
			c-6.49-3.84-6.54-11.96-0.07-15.82c4.12-2.46,8.31-4.79,12.53-7.08c9.48-5.14,16.71-12.48,21.84-21.95
			c2.31-4.27,4.78-8.45,7.21-12.66C396.61,343.28,399.2,341.85,402.9,341.79z"/>
		<path class="st0" d="M42.74,90.07c0-3.69,1.8-6.23,4.93-8.05c6.19-3.6,12.41-7.14,18.48-10.93C72.68,67,77.26,61.03,81.1,54.47
			c2.68-4.57,5.2-9.23,7.85-13.81c1.77-3.05,4.44-4.67,8.02-4.61c3.68,0.06,6.21,1.95,8.02,5.04c3.65,6.23,7.2,12.54,11.07,18.64
			c3.96,6.24,9.7,10.67,16.01,14.36c4.57,2.67,9.21,5.24,13.8,7.86c6.59,3.77,6.74,12.06,0.23,16c-4.48,2.71-9.06,5.27-13.65,7.81
			c-9.19,5.08-15.9,12.54-20.93,21.64c-2.13,3.87-4.34,7.69-6.46,11.57c-1.82,3.33-4.56,5.23-8.36,5.19
			c-3.82-0.04-6.42-2.08-8.23-5.42c-2.56-4.74-5.3-9.39-7.96-14.07c-5.17-9.07-12.83-15.46-21.85-20.42
			c-4.06-2.23-8.11-4.49-12.06-6.91C43.87,95.66,42.76,93.25,42.74,90.07z"/>
		<path class="st0" d="M409.72,115.32c0.05,2.42-1.22,4-3.22,5.15c-3.13,1.8-6.26,3.61-9.38,5.44c-6.25,3.68-9.79,9.63-13.17,15.71
			c-0.78,1.41-1.53,2.87-2.52,4.13c-2.38,3.04-6.67,2.84-8.79-0.38c-1.01-1.54-1.98-3.13-2.75-4.8c-4.1-8.88-11.14-14.65-19.68-18.9
			c-0.86-0.43-1.71-0.86-2.53-1.35c-4.05-2.41-4.02-7.46,0.07-9.82c2.23-1.29,4.46-2.6,6.75-3.8c6.79-3.55,11.49-9.08,15.03-15.72
			c0.87-1.62,1.74-3.24,2.64-4.84c2.41-4.25,7.42-4.37,9.96-0.18c1.95,3.21,3.71,6.54,5.68,9.75c3.27,5.31,8.14,8.82,13.5,11.76
			c1.93,1.06,3.85,2.15,5.74,3.29C408.75,111.79,409.68,113.31,409.72,115.32z"/>
		<path class="st0" d="M154.87,369.44c-0.2,3.17-1.09,4.83-3.01,5.9c-3.09,1.73-6.17,3.48-9.23,5.27
			c-6.67,3.89-10.44,10.22-14,16.73c-0.56,1.03-1.1,2.08-1.78,3.04c-2.56,3.63-7.19,3.4-9.44-0.45c-1.27-2.17-2.56-4.32-3.71-6.55
			c-3.7-7.19-9.59-12.01-16.62-15.66c-1.63-0.85-3.26-1.73-4.78-2.75c-3.35-2.24-3.37-6.89,0.02-9.05c2.92-1.86,6.01-3.47,9-5.22
			c5.92-3.47,10-8.61,13.17-14.58c0.93-1.75,1.85-3.53,2.95-5.17c2.86-4.27,7.51-3.96,10.06,0.49c2.27,3.97,4.52,7.98,7.15,11.71
			c3.31,4.68,8.26,7.45,13.17,10.18c1.48,0.82,3.14,1.46,4.37,2.57C153.46,367.05,154.31,368.66,154.87,369.44z"/>
	</g>
</g>
</svg>
