<?xml version="1.0" encoding="utf-8"?>
<!-- Generator: Adobe Illustrator 23.0.6, SVG Export Plug-In . SVG Version: 6.00 Build 0)  -->
<svg version="1.1" id="Layer_1" xmlns="http://www.w3.org/2000/svg" xmlns:xlink="http://www.w3.org/1999/xlink" x="0px" y="0px"
	 viewBox="0 0 1000 1000" style="enable-background:new 0 0 1000 1000;" xml:space="preserve">
<style type="text/css">
	.st0{fill:#FFFFFF;}
</style>
<g id="oBqWfD.tif">
	<g>
		<g>
			<path class="st0" d="M653.53,883c-18.08-4.38-37.01-6.64-54.08-13.51c-66.62-26.82-106.63-76.27-119.6-147.08
				c-6.02-32.86-2.38-65,8.91-96.36c1.14-3.16,2.95-6-1.61-8.78c-39.11-23.84-78.07-47.93-117.01-71.91
				c-72.75,76.28-185.52,59.51-240.14-8.19c-54.66-67.75-46.29-164.32,20.19-222.4c61.46-53.69,167.92-55.52,231.59,26.62
				c1.86-0.72,3.92-1.39,5.88-2.29c49.73-22.94,99.43-45.95,149.22-68.77c4.43-2.03,6.37-3.89,5.48-9.34
				c-9.1-55.78,25.69-114.77,79.29-135.02c74.96-28.32,154.02,14.21,171.73,92.39c16.72,73.8-39.1,148.35-114.73,153.31
				c-41.51,2.73-76.2-11.48-104.2-42.01c-3.34-3.64-5.78-3.92-10.1-1.91c-49.89,23.2-99.83,46.28-149.89,69.1
				c-5.03,2.29-5.74,5.05-4.69,9.77c5.93,26.74,3.56,53-5.1,78.78c-1.25,3.73-0.93,5.77,2.57,7.91
				c38.88,23.78,77.68,47.71,116.78,71.77c7.94-7.26,15.54-14.74,23.67-21.57c71.31-59.96,180.04-57.32,248.75,5.74
				c35.61,32.68,56.37,72.88,62.25,120.82c0.27,2.17,0.87,4.3,1.31,6.45c0,9.97,0,19.95,0,29.92c-0.94,5.35-1.82,10.7-2.82,16.04
				c-13.14,70.41-52.8,119.78-118.97,146.74c-17.26,7.03-36.45,9.31-54.76,13.77C673.48,883,663.51,883,653.53,883z"/>
		</g>
	</g>
</g>
</svg>
